[
  {
    "model": "auth.group",
    "pk": 1,
    "fields": {
      "name": "partner",
      "permissions": []
    }
  },

  {
    "model": "auth.group",
    "pk": 2,
    "fields": {
      "name": "credit_org",
      "permissions": []
    }
  },


  {
    "model": "auth.group_permissions",
    "pk": 1,
    "fields": {
      "group": 1,
      "permission": 25
    }
  },
  {
    "model": "auth.group_permissions",
    "pk": 2,
    "fields": {
      "group": 1,
      "permission": 28
    }
  },
  {
    "model": "auth.group_permissions",
    "pk": 3,
    "fields": {
      "group": 1,
      "permission": 36
    }
  },
  {
    "model": "auth.group_permissions",
    "pk": 4,
    "fields": {
      "group": 1,
      "permission": 33
    }
  },
  {
    "model": "auth.group_permissions",
    "pk": 5,
    "fields": {
      "group": 2,
      "permission": 34
    }
  },
  {
    "model": "auth.group_permissions",
    "pk": 6,
    "fields": {
      "group": 2,
      "permission": 36
    }
  }
]




